# Updated numbers, taken from Tab. 6 in 1708.08912.
# Polarization: (e-,e+)=(-0.8,0.3)
500108	50008	1
arXiv:1306.6352
ILC, ILC, ILC
(ee)->WBF->bb
500	500	0.001
1	0
0.2
125.0 125.0 0.1
1	-1
35

125.0	0.9907	1.000	1.0093
