# Updated numbers, taken from Tab. 6 in 1708.08912.
# Polarization: (e-,e+)=(-0.8,0.3)
500116	50016	1
arXiv:1310.0763
ILC, ILC, ILC
(ee)->Zh
500	500	0.001
1	1
0.032
125.0 125.0 0.01
1	-1
40

125.0	0.958	1.000	1.042
